\babel@toc {croatian}{}\relax 
\contentsline {chapter}{\numberline {1}Uvod}{1}{chapter.1}%
\contentsline {chapter}{\numberline {2}Alati za generiranje testnih podataka}{2}{chapter.2}%
\contentsline {section}{\numberline {2.1}DATAPROF Privacy}{2}{section.2.1}%
\contentsline {section}{\numberline {2.2}Datanamic Data Generator}{4}{section.2.2}%
\contentsline {section}{\numberline {2.3}ApexSQL Generate}{6}{section.2.3}%
\contentsline {section}{\numberline {2.4}dbForge Data Generator}{7}{section.2.4}%
\contentsline {section}{\numberline {2.5}Mockaroo}{8}{section.2.5}%
\contentsline {section}{\numberline {2.6}Sažetak analize alata za generiranje testnih podataka}{9}{section.2.6}%
\contentsline {chapter}{\numberline {3}Pregled radnih okvira za izradu višeplatformskih stolnih aplikacija}{10}{chapter.3}%
\contentsline {section}{\numberline {3.1}Java Swing}{11}{section.3.1}%
\contentsline {chapter}{\numberline {4}Zaključak}{12}{chapter.4}%
\contentsline {chapter}{Literatura}{13}{chapter*.10}%
