\relax 
\providecommand\hyper@newdestlabel[2]{}
\providecommand\babel@aux[2]{}
\@nameuse{bbl@beforestart}
\providecommand\HyperFirstAtBeginDocument{\AtBeginDocument}
\HyperFirstAtBeginDocument{\ifx\hyper@anchor\@undefined
\global\let\oldcontentsline\contentsline
\gdef\contentsline#1#2#3#4{\oldcontentsline{#1}{#2}{#3}}
\global\let\oldnewlabel\newlabel
\gdef\newlabel#1#2{\newlabelxx{#1}#2}
\gdef\newlabelxx#1#2#3#4#5#6{\oldnewlabel{#1}{{#2}{#3}}}
\AtEndDocument{\ifx\hyper@anchor\@undefined
\let\contentsline\oldcontentsline
\let\newlabel\oldnewlabel
\fi}
\fi}
\global\let\hyper@last\relax 
\gdef\HyperFirstAtBeginDocument#1{#1}
\providecommand\HyField@AuxAddToFields[1]{}
\providecommand\HyField@AuxAddToCoFields[2]{}
\babel@aux{croatian}{}
\@writefile{toc}{\contentsline {chapter}{\numberline {1}Uvod}{1}{chapter.1}\protected@file@percent }
\@writefile{lof}{\addvspace {10\p@ }}
\@writefile{lot}{\addvspace {10\p@ }}
\@writefile{toc}{\contentsline {chapter}{\numberline {2}Alati za generiranje testnih podataka}{2}{chapter.2}\protected@file@percent }
\@writefile{lof}{\addvspace {10\p@ }}
\@writefile{lot}{\addvspace {10\p@ }}
\@writefile{toc}{\contentsline {section}{\numberline {2.1}DATAPROF Privacy}{2}{section.2.1}\protected@file@percent }
\@writefile{lof}{\contentsline {figure}{\numberline {2.1}{\ignorespaces Uspostavljanje veze s bazom podataka\relax }}{3}{figure.caption.2}\protected@file@percent }
\providecommand*\caption@xref[2]{\@setref\relax\@undefined{#1}}
\newlabel{fig:fer-logo}{{2.1}{3}{Uspostavljanje veze s bazom podataka\relax }{figure.caption.2}{}}
\@writefile{lof}{\contentsline {figure}{\numberline {2.2}{\ignorespaces Odabir generatora\relax }}{3}{figure.caption.3}\protected@file@percent }
\newlabel{fig:fer-logo}{{2.2}{3}{Odabir generatora\relax }{figure.caption.3}{}}
\@writefile{lof}{\contentsline {figure}{\numberline {2.3}{\ignorespaces Uvoz generiranih podataka u bazu podataka\relax }}{4}{figure.caption.4}\protected@file@percent }
\newlabel{fig:fer-logo}{{2.3}{4}{Uvoz generiranih podataka u bazu podataka\relax }{figure.caption.4}{}}
\@writefile{toc}{\contentsline {section}{\numberline {2.2}Datanamic Data Generator}{4}{section.2.2}\protected@file@percent }
\@writefile{lof}{\contentsline {figure}{\numberline {2.4}{\ignorespaces Automatsko prepoznavanje vrste podataka\relax }}{5}{figure.caption.5}\protected@file@percent }
\newlabel{fig:fer-logo}{{2.4}{5}{Automatsko prepoznavanje vrste podataka\relax }{figure.caption.5}{}}
\@writefile{toc}{\contentsline {section}{\numberline {2.3}ApexSQL Generate}{6}{section.2.3}\protected@file@percent }
\@writefile{lof}{\contentsline {figure}{\numberline {2.5}{\ignorespaces ApexSQL Generate\relax }}{6}{figure.caption.6}\protected@file@percent }
\newlabel{fig:fer-logo}{{2.5}{6}{ApexSQL Generate\relax }{figure.caption.6}{}}
\@writefile{toc}{\contentsline {section}{\numberline {2.4}dbForge Data Generator}{7}{section.2.4}\protected@file@percent }
\@writefile{lof}{\contentsline {figure}{\numberline {2.6}{\ignorespaces dbForge Data Generator\relax }}{7}{figure.caption.7}\protected@file@percent }
\newlabel{fig:fer-logo}{{2.6}{7}{dbForge Data Generator\relax }{figure.caption.7}{}}
\@writefile{toc}{\contentsline {section}{\numberline {2.5}Mockaroo}{8}{section.2.5}\protected@file@percent }
\@writefile{lof}{\contentsline {figure}{\numberline {2.7}{\ignorespaces Logo FER-a\relax }}{8}{figure.caption.8}\protected@file@percent }
\newlabel{fig:fer-logo}{{2.7}{8}{Logo FER-a\relax }{figure.caption.8}{}}
\@writefile{toc}{\contentsline {section}{\numberline {2.6}Sažetak analize alata za generiranje testnih podataka}{9}{section.2.6}\protected@file@percent }
\@writefile{lof}{\contentsline {figure}{\numberline {2.8}{\ignorespaces Matrica značajki analiziranih alata\relax }}{9}{figure.caption.9}\protected@file@percent }
\newlabel{fig:fer-logo}{{2.8}{9}{Matrica značajki analiziranih alata\relax }{figure.caption.9}{}}
\@writefile{toc}{\contentsline {chapter}{\numberline {3}Pregled radnih okvira za izradu višeplatformskih stolnih aplikacija}{10}{chapter.3}\protected@file@percent }
\@writefile{lof}{\addvspace {10\p@ }}
\@writefile{lot}{\addvspace {10\p@ }}
\@writefile{toc}{\contentsline {section}{\numberline {3.1}Java Swing}{11}{section.3.1}\protected@file@percent }
\bibdata{literatura}
\@writefile{toc}{\contentsline {chapter}{\numberline {4}Zaključak}{12}{chapter.4}\protected@file@percent }
\@writefile{lof}{\addvspace {10\p@ }}
\@writefile{lot}{\addvspace {10\p@ }}
\bibstyle{fer}
\@writefile{toc}{\contentsline {chapter}{Literatura}{13}{chapter*.10}\protected@file@percent }
\gdef \@abspage@last{18}
